id,Name,Rate,"PKR Salary","USD Salary"
185,"Aamir H.",10,50000,0
1,"Aamir K.",10,50000,0
186,Aaron,10,50000,0
77,"Aatir T.",10,50000,0
152,"Abid H.",10,50000,0
78,"Abid M.",10,50000,0
187,"Adeel A.",10,50000,0
79,"Adeel G.",10,50000,0
188,"Adeel S.",10,50000,0
80,"Adnan K.",10,50000,0
153,"Adnan M.",10,50000,0
154,"Ahmed L.",10,50000,0
155,"Ahsan A.",10,50000,0
82,"Ahsan M.",0,50000,0
83,"Aizaz A.",10,50000,0
84,"Alex Wright",10,50000,0
85,"Ali H.",10,50000,0
86,"Ali R.",10,50000,0
87,"Altaf H.",10,50000,0
156,"Amir B.",10,50000,0
88,"Amir M.",10,50000,0
204,"Andrea G.",0,0,1000.86
206,"Anne S.",0,0,4820
158,"Arshad M.",10,50000,0
159,"Arslan B.",10,50000,0
90,"Asad A.",0,50000,0
91,"Asad K.",10,50000,0
92,"Asad M.",10,50000,0
160,"Asad N.",10,50000,0
161,"Asif N.",10,50000,0
162,"Asim I.",10,50000,0
94,"Asma K.",10,50000,0
95,"Atta H.",10,50000,0
163,"Awais M.",10,50000,0
96,"Awais R.",2.65,50000,0
97,"Ayaz M.",50,50000,0
164,"Azaz U.",10,50000,0
191,"Bahadur O.",10,50000,0
165,"Basit N.",10,50000,0
209,"Beau B.",0,0,5000
205,"Brittany L.",0,0,5000
98,"Danish E.",10,50000,0
99,"David Moore",10,50000,0
100,"Fahad A.",10,50000,0
72,"Faisal Q",10,50000,0
166,"Faisal R.",10,50000,0
167,"Faqeer R.",10,50000,0
101,"Farhan Z.",10,50000,0
102,"Farhat M.",10,50000,0
103,"Fayaz K.",10,50000,0
192,Frank,10,50000,0
104,"Furqan A.",10,50000,0
193,"Furqan R.",10,50000,0
194,"Ghaffar A.",10,50000,0
168,"Ghufran Y.",10,50000,0
107,"Imran A.",10,50000,0
169,"Imran G.",10,50000,0
170,"Inayat H.",10,50000,0
171,"Irfan Y.",10,50000,0
172,"Irshad K.",10,50000,0
108,"Junaid A.",10,50000,0
109,"Kamran G.",10,50000,0
203,"Katherine L",0,0,5000
195,"Khadim A.",10,50000,0
111,"Khurram K.",10,50000,0
112,"Khurram M.",10,50000,0
208,"Laura W.",0,0,5000
173,"Mark Anderson",10,50000,0
113,"Masood U.",10,50000,0
114,"Moeen A.",10,50000,0
115,"Muhammad W.",0,50000,0
116,"Mujtaba A.",10,50000,0
117,"Murtaza A.",10,50000,0
118,"Mustfeez R.",0,50000,0
120,"Nabeel Ilyas",10,50000,0
121,"Nadeem I.",10,50000,0
122,"Nash M.",10,50000,0
123,"Nasir T.",10,50000,0
174,"Nauman A.",10,50000,0
124,"Nauman K.",10,50000,0
125,"Qadir K.",10,50000,0
175,"Qasim N.",10,50000,0
196,"Rabnawaz K.",0,50000,0
126,"Raheel Afzal",10,50000,0
128,"Raheel K.",10,50000,0
176,"Raheel Q.",10,50000,0
202,"Randall Agee",0,0,5000
127,"Raza A.",3.22,50000,0
177,"Rizwan A.",10,50000,0
129,"Saad H.",10,50000,0
178,"Salman Ali",10,50000,0
130,"Salman Y.",10,50000,0
197,"Samee D.",10,50000,0
131,"Shafqat H.",10,50000,0
132,"Shahid A.",10,50000,0
133,"Sharjeel K.",3.75,50000,0
134,"Sheraz A.",10,50000,0
135,"Sheraz M.",20,50000,0
198,"Sohaib A.",10,50000,0
137,"Sohail D.",0,50000,0
138,"Sohail R.",10,50000,0
199,Spencer,10,50000,0
201,"Suhail A.",10,50000,0
179,"Sunil Masih",10,50000,0
139,"Taimoor S.",10,50000,0
207,"Tara W.",0,0,5000
141,"Umar A.",10,50000,0
142,"Umer F.",10,50000,0
180,"Usman Ali",10,50000,0
181,"Usman F.",10,50000,0
182,"Uzma M.",0,50000,0
143,"Wajeeh S.",10,50000,0
144,"Waqar A.",10,50000,0
183,"Waqar Q.",10,50000,0
184,"Waqas N.",10,50000,0
145,"Waqas S.",10,50000,0
146,"Yasir A.",10,50000,0
147,"Yasir T.",10,50000,0
148,"Yousaf M.",0,50000,0
200,Zach,10,50000,0
149,"Zaheer A.",0,50000,0
151,"Ziafat A.",10,50000,0
